{
    "name": "Drive Activity Indicator",
    "description": "Visualize the activity of storage drives (disk activity LED simulator).",
    "uuid": "drive-activity-indicator@marcosdalvarez.org",
    "settings-schema": "org.gnome.shell.extensions.drive-activity-indicator",
    "gettext-domain": "drive-activity-indicator@marcosdalvarez.org",
    "url": "https://gitlab.com/marcosdalvarez/drive-activity-indicator-extension",
    "shell-version": [
        "46",
        "47",
        "48"
    ]
}
